sim_output/top_play.vcd
$date
	Mon Jun 01 16:48:24 2026
$end
$version
	Icarus Verilog
$end
$timescale
	1ps
$end
$scope module tb_top_play $end
$var wire 7 ! seg [6:0] $end
$var wire 1 " dp $end
$var wire 4 # an [3:0] $end
$var reg 1 $ btnC $end
$var reg 1 % btnD $end
$var reg 1 & btnL $end
$var reg 1 ' btnR $end
$var reg 1 ( btnU $end
$var reg 1 ) clk $end
$var reg 16 * sw [15:0] $end
$var integer 32 + failures [31:0] $end
$scope module uut $end
$var wire 1 $ btnC $end
$var wire 1 % btnD $end
$var wire 1 & btnL $end
$var wire 1 ' btnR $end
$var wire 1 ( btnU $end
$var wire 1 , clear_used $end
$var wire 1 ) clk $end
$var wire 1 - regenerate_mines $end
$var wire 1 . score_reset $end
$var wire 1 / startup_rst $end
$var wire 16 0 sw [15:0] $end
$var wire 14 1 used_switches [13:0] $end
$var wire 1 2 toggles_allowed $end
$var wire 14 3 selected_switch [13:0] $end
$var wire 7 4 seg [6:0] $end
$var wire 1 5 score_mode $end
$var wire 1 6 regenerate_mines_game $end
$var wire 4 7 player2_score [3:0] $end
$var wire 4 8 player1_score [3:0] $end
$var wire 1 9 move_valid $end
$var wire 14 : mine_mask [13:0] $end
$var wire 4 ; mine_count [3:0] $end
$var wire 1 < match_lost $end
$var wire 1 = losing_player $end
$var wire 1 > invalid_move $end
$var wire 1 ? hard_reset_pulse $end
$var wire 1 @ game_mode $end
$var wire 3 A game_display_mode [2:0] $end
$var wire 1 " dp $end
$var wire 1 B current_player $end
$var wire 1 C countdown_start $end
$var wire 4 D countdown_dp_mask [3:0] $end
$var wire 1 E countdown_done $end
$var wire 1 F countdown_active $end
$var wire 1 G clear_used_game $end
$var wire 1 H btnU_clean $end
$var wire 1 I btnR_clean $end
$var wire 1 J btnL_clean $end
$var wire 1 K btnD_clean $end
$var wire 1 L btnC_clean $end
$var wire 4 M an [3:0] $end
$var wire 1 N accept_moves $end
$var parameter 32 O COUNTDOWN_STEP_TICKS $end
$var parameter 32 P DEBOUNCE_CLK_FRQ $end
$var parameter 32 Q DEBOUNCE_SAMPLE_FRQ $end
$var parameter 32 R RESULT_TICKS $end
$var reg 16 S startup_counter [15:0] $end
$scope module countdown_unit $end
$var wire 1 ) clk $end
$var wire 1 / rst $end
$var wire 1 C start $end
$var parameter 32 T STEP_TICKS $end
$var reg 1 F active $end
$var reg 1 E done $end
$var reg 4 U dp_mask [3:0] $end
$var reg 2 V step [1:0] $end
$var reg 32 W tick_count [31:0] $end
$upscope $end
$scope module db_center $end
$var wire 1 ) clk $end
$var wire 1 $ noisy_in $end
$var wire 1 / rst $end
$var parameter 32 X CLK_FRQ $end
$var parameter 32 Y DIVISOR $end
$var parameter 32 Z SAMPLE_FRQ $end
$var reg 1 L clean_out $end
$var reg 4 [ counter [3:0] $end
$var reg 1 \ sample_tick $end
$var reg 1 ] sync_ff1 $end
$var reg 1 ^ sync_ff2 $end
$upscope $end
$scope module db_down $end
$var wire 1 ) clk $end
$var wire 1 % noisy_in $end
$var wire 1 / rst $end
$var parameter 32 _ CLK_FRQ $end
$var parameter 32 ` DIVISOR $end
$var parameter 32 a SAMPLE_FRQ $end
$var reg 1 K clean_out $end
$var reg 4 b counter [3:0] $end
$var reg 1 c sample_tick $end
$var reg 1 d sync_ff1 $end
$var reg 1 e sync_ff2 $end
$upscope $end
$scope module db_left $end
$var wire 1 ) clk $end
$var wire 1 & noisy_in $end
$var wire 1 / rst $end
$var parameter 32 f CLK_FRQ $end
$var parameter 32 g DIVISOR $end
$var parameter 32 h SAMPLE_FRQ $end
$var reg 1 J clean_out $end
$var reg 4 i counter [3:0] $end
$var reg 1 j sample_tick $end
$var reg 1 k sync_ff1 $end
$var reg 1 l sync_ff2 $end
$upscope $end
$scope module db_right $end
$var wire 1 ) clk $end
$var wire 1 ' noisy_in $end
$var wire 1 / rst $end
$var parameter 32 m CLK_FRQ $end
$var parameter 32 n DIVISOR $end
$var parameter 32 o SAMPLE_FRQ $end
$var reg 1 I clean_out $end
$var reg 4 p counter [3:0] $end
$var reg 1 q sample_tick $end
$var reg 1 r sync_ff1 $end
$var reg 1 s sync_ff2 $end
$upscope $end
$scope module db_up $end
$var wire 1 ) clk $end
$var wire 1 ( noisy_in $end
$var wire 1 / rst $end
$var parameter 32 t CLK_FRQ $end
$var parameter 32 u DIVISOR $end
$var parameter 32 v SAMPLE_FRQ $end
$var reg 1 H clean_out $end
$var reg 4 w counter [3:0] $end
$var reg 1 x sample_tick $end
$var reg 1 y sync_ff1 $end
$var reg 1 z sync_ff2 $end
$upscope $end
$scope module display_unit $end
$var wire 1 ) clk $end
$var wire 4 { countdown_dp_mask [3:0] $end
$var wire 1 / rst $end
$var wire 1 H show_player1_score $end
$var wire 1 K show_player2_score $end
$var wire 1 5 score_mode $end
$var wire 4 | player2_score [3:0] $end
$var wire 4 } player1_score [3:0] $end
$var wire 4 ~ mine_count [3:0] $end
$var wire 3 !" game_display_mode [2:0] $end
$var wire 2 "" digit_select [1:0] $end
$var wire 1 B current_player $end
$var parameter 3 #" DISP_COUNTDOWN $end
$var parameter 3 $" DISP_INVALID $end
$var parameter 3 %" DISP_LOSE $end
$var parameter 3 &" DISP_SAFE $end
$var parameter 3 '" DISP_SETUP $end
$var parameter 3 (" DISP_WAIT $end
$var parameter 7 )" SEG_A $end
$var parameter 7 *" SEG_BLANK $end
$var parameter 7 +" SEG_DASH $end
$var parameter 7 ," SEG_E $end
$var parameter 7 -" SEG_F $end
$var parameter 7 ." SEG_I $end
$var parameter 7 /" SEG_L $end
$var parameter 7 0" SEG_N $end
$var parameter 7 1" SEG_O $end
$var parameter 7 2" SEG_P $end
$var parameter 7 3" SEG_S $end
$var parameter 7 4" SEG_V $end
$var reg 4 5" an [3:0] $end
$var reg 7 6" digit0 [6:0] $end
$var reg 7 7" digit1 [6:0] $end
$var reg 7 8" digit2 [6:0] $end
$var reg 7 9" digit3 [6:0] $end
$var reg 1 " dp $end
$var reg 16 :" refresh_counter [15:0] $end
$var reg 7 ;" seg [6:0] $end
$scope function digit_to_seg $end
$var reg 4 <" value [3:0] $end
$upscope $end
$upscope $end
$scope module game_unit $end
$var wire 1 =" btn_left $end
$var wire 1 >" btn_left_press $end
$var wire 1 ?" btn_right $end
$var wire 1 @" btn_right_press $end
$var wire 1 ) clk $end
$var wire 1 E countdown_done $end
$var wire 1 / rst $end
$var wire 14 A" selected_switch [13:0] $end
$var wire 1 B" selected_is_mine $end
$var wire 1 9 move_valid $end
$var wire 14 C" mine_mask [13:0] $end
$var wire 1 ? match_reset $end
$var wire 1 > invalid_move $end
$var wire 1 @ game_mode $end
$var parameter 3 D" DISP_COUNTDOWN $end
$var parameter 3 E" DISP_INVALID $end
$var parameter 3 F" DISP_LOSE $end
$var parameter 3 G" DISP_SAFE $end
$var parameter 3 H" DISP_SETUP $end
$var parameter 3 I" DISP_WAIT $end
$var parameter 32 J" RESULT_TICKS $end
$var parameter 3 K" STATE_COUNTDOWN $end
$var parameter 3 L" STATE_INVALID $end
$var parameter 3 M" STATE_LOSE $end
$var parameter 3 N" STATE_SAFE $end
$var parameter 3 O" STATE_SETUP $end
$var parameter 3 P" STATE_WAIT_MOVE $end
$var reg 1 N accept_moves $end
$var reg 1 Q" btn_left_prev $end
$var reg 1 R" btn_right_prev $end
$var reg 1 G clear_used $end
$var reg 1 C countdown_start $end
$var reg 1 B current_player $end
$var reg 3 S" display_mode [2:0] $end
$var reg 14 T" latched_switch [13:0] $end
$var reg 1 = losing_player $end
$var reg 1 < match_lost $end
$var reg 4 U" mine_count [3:0] $end
$var reg 1 6 regenerate_mines $end
$var reg 32 V" result_counter [31:0] $end
$var reg 3 W" state [2:0] $end
$upscope $end
$scope module mine_unit $end
$var wire 1 ) clk $end
$var wire 1 X" feedback $end
$var wire 4 Y" mine_count [3:0] $end
$var wire 1 - regenerate $end
$var wire 1 / rst $end
$var reg 16 Z" lfsr [15:0] $end
$var reg 14 [" mine_mask [13:0] $end
$var reg 14 \" next_mask [13:0] $end
$var integer 32 ]" i [31:0] $end
$var integer 32 ^" idx [31:0] $end
$upscope $end
$scope module mode_unit $end
$var wire 1 ) clk $end
$var wire 1 @ game_mode $end
$var wire 14 _" game_switches [13:0] $end
$var wire 1 `" reset_toggle $end
$var wire 1 / rst $end
$var wire 1 a" score_toggle $end
$var wire 1 2 toggles_allowed $end
$var reg 1 ? hard_reset_pulse $end
$var reg 1 b" reset_toggle_prev $end
$var reg 1 5 score_mode $end
$upscope $end
$scope module score_unit $end
$var wire 1 ) clk $end
$var wire 1 = losing_player $end
$var wire 1 < match_lost $end
$var wire 1 c" new_loss_event $end
$var wire 1 . reset_scores $end
$var wire 1 / rst $end
$var reg 1 d" match_lost_prev $end
$var reg 4 e" player1_score [3:0] $end
$var reg 4 f" player2_score [3:0] $end
$upscope $end
$scope module switch_unit $end
$var wire 1 g" accept_moves $end
$var wire 1 , clear_used $end
$var wire 1 ) clk $end
$var wire 1 L confirm_btn $end
$var wire 1 h" confirm_press $end
$var wire 14 i" game_switches [13:0] $end
$var wire 14 j" newly_raised_switches [13:0] $end
$var wire 1 / rst $end
$var wire 1 k" lowered_used_switch $end
$var reg 1 l" confirm_btn_prev $end
$var reg 1 > invalid_move $end
$var reg 1 9 move_valid $end
$var reg 14 m" selected_switch [13:0] $end
$var reg 14 n" used_switches [13:0] $end
$scope function exactly_one_switch $end
$var reg 14 o" switch_value [13:0] $end
$upscope $end
$upscope $end
$upscope $end
$scope task check_score $end
$var reg 4 p" expected_p1 [3:0] $end
$var reg 4 q" expected_p2 [3:0] $end
$upscope $end
$scope task press_center $end
$upscope $end
$scope task press_right $end
$upscope $end
$scope task press_up $end
$upscope $end
$scope task wait_cycles $end
$var integer 32 r" cycles [31:0] $end
$var integer 32 s" i [31:0] $end
$upscope $end
$upscope $end
$enddefinitions $end
$comment Show the parameter values. $end
$dumpall
b1 P"
b0 O"
b11 N"
b100 M"
b101 L"
b10 K"
b1000 J"
b1 I"
b0 H"
b11 G"
b100 F"
b101 E"
b10 D"
b1000001 4"
b100100 3"
b11000 2"
b1 1"
b1001 0"
b1110001 /"
b1001111 ."
b111000 -"
b110000 ,"
b1111110 +"
b1111111 *"
b1000 )"
b1 ("
b0 '"
b11 &"
b100 %"
b101 $"
b10 #"
b100110001001011010000000 v
b1010 u
b101111101011110000100000000 t
b100110001001011010000000 o
b1010 n
b101111101011110000100000000 m
b100110001001011010000000 h
b1010 g
b101111101011110000100000000 f
b100110001001011010000000 a
b1010 `
b101111101011110000100000000 _
b100110001001011010000000 Z
b1010 Y
b101111101011110000100000000 X
b100 T
b1000 R
b100110001001011010000000 Q
b101111101011110000100000000 P
b100 O
$end
#0
$dumpvars
b0 s"
b1001110001000000 r"
bx q"
bx p"
bx o"
bx n"
bx m"
xl"
xk"
b0 j"
b0 i"
xh"
xg"
bx f"
bx e"
xd"
xc"
xb"
0a"
0`"
b0 _"
bx ^"
bx ]"
bx \"
bx ["
bx Z"
bx Y"
xX"
bx W"
bx V"
bx U"
bx T"
bx S"
xR"
xQ"
bx C"
xB"
bx A"
x@"
x?"
x>"
x="
bx <"
bx ;"
bx :"
bx 9"
bx 8"
bx 7"
bx 6"
bx 5"
bx ""
bx !"
bx ~
bx }
bx |
bx {
xz
xy
xx
bx w
xs
xr
xq
bx p
xl
xk
xj
bx i
xe
xd
xc
bx b
x^
x]
x\
bx [
bx W
bx V
bx U
b0 S
xN
bx M
xL
xK
xJ
xI
xH
xG
xF
xE
bx D
xC
xB
bx A
x@
x?
x>
x=
x<
bx ;
bx :
x9
bx 8
bx 7
x6
x5
bx 4
bx 3
12
bx 1
b0 0
1/
x.
x-
x,
b0 +
b0 *
0)
0(
0'
0&
0%
0$
bx #
x"
bx !
$end
#5000
1X"
0>"
0@"
0="
0?"
0.
1@
0k"
0h"
1-
1,
0g"
0B"
b110 !
b110 4
b110 ;"
b1110 #
b1110 M
b1110 5"
1"
0c"
b11 <"
b110 6"
b1111110 7"
b1111111 8"
b1111111 9"
b0 ""
0^
0]
0\
b0 [
0L
0z
0y
0x
b0 w
0H
0l
0k
0j
b0 i
0J
0s
0r
0q
b0 p
0I
0e
0d
0c
b0 b
0K
0?
0b"
05
b0 1
b0 n"
b0 3
b0 A"
b0 m"
0>
09
0l"
b0 A
b0 !"
b0 S"
0<
0=
0B
b11 ;
b11 ~
b11 U"
b11 Y"
0C
16
1G
0N
b0 V"
0R"
0Q"
b0 T"
b0 W"
b111 :
b111 C"
b111 ["
b1010110011100001 Z"
b0 W
b0 V
b0 D
b0 U
b0 {
0E
0F
0d"
b0 7
b0 |
b0 f"
b0 8
b0 }
b0 e"
b0 :"
b1 S
b1 s"
1)
#10000
0)
#15000
b10 S
b10 s"
1)
#20000
0)
#25000
b11 S
b11 s"
1)
#30000
0)
#35000
b100 S
b100 s"
1)
#40000
0)
#45000
b101 S
b101 s"
1)
#50000
0)
#55000
b110 S
b110 s"
1)
#60000
0)
#65000
b111 S
b111 s"
1)
#70000
0)
#75000
b1000 S
b1000 s"
1)
#80000
0)
#85000
b1001 S
b1001 s"
1)
#90000
0)
#95000
b1010 S
b1010 s"
1)
#100000
0)
#105000
b1011 S
b1011 s"
1)
#110000
0)
#115000
b1100 S
b1100 s"
1)
#120000
0)
#125000
b1101 S
b1101 s"
1)
#130000
0)
#135000
b1110 S
b1110 s"
1)
#140000
0)
#145000
b1111 S
b1111 s"
1)
#150000
0)
#155000
b10000 S
b10000 s"
1)
#160000
0)
#165000
b10001 S
b10001 s"
1)
#170000
0)
#175000
b10010 S
b10010 s"
1)
#180000
0)
#185000
b10011 S
b10011 s"
1)
#190000
0)
#195000
b10100 S
b10100 s"
1)
#200000
0)
#205000
b10101 S
b10101 s"
1)
#210000
0)
#215000
b10110 S
b10110 s"
1)
#220000
0)
#225000
b10111 S
b10111 s"
1)
#230000
0)
#235000
b11000 S
b11000 s"
1)
#240000
0)
#245000
b11001 S
b11001 s"
1)
#250000
0)
#255000
b11010 S
b11010 s"
1)
#260000
0)
#265000
b11011 S
b11011 s"
1)
#270000
0)
#275000
b11100 S
b11100 s"
1)
#280000
0)
#285000
b11101 S
b11101 s"
1)
#290000
0)
#295000
b11110 S
b11110 s"
1)
#300000
0)
#305000
b11111 S
b11111 s"
1)
#310000
0)
#315000
b100000 S
b100000 s"
1)
#320000
0)
#325000
b100001 S
b100001 s"
1)
#330000
0)
#335000
b100010 S
b100010 s"
1)
#340000
0)
#345000
b100011 S
b100011 s"
1)
#350000
0)
#355000
b100100 S
b100100 s"
1)
#360000
0)
#365000
b100101 S
b100101 s"
1)
#370000
0)
#375000
b100110 S
b100110 s"
1)
#380000
0)
#385000
b100111 S
b100111 s"
1)
#390000
0)
#395000
b101000 S
b101000 s"
1)
#400000
0)
#405000
b101001 S
b101001 s"
1)
#410000
0)
#415000
b101010 S
b101010 s"
1)
#420000
0)
#425000
b101011 S
b101011 s"
1)
#430000
0)
#435000
b101100 S
b101100 s"
1)
#440000
0)
#445000
b101101 S
b101101 s"
1)
#450000
0)
#455000
b101110 S
b101110 s"
1)
#460000
0)
#465000
b101111 S
b101111 s"
1)
#470000
0)
#475000
b110000 S
b110000 s"
1)
#480000
0)
#485000
b110001 S
b110001 s"
1)
#490000
0)
#495000
b110010 S
b110010 s"
1)
#500000
0)
#505000
b110011 S
b110011 s"
1)
#510000
0)
#515000
b110100 S
b110100 s"
1)
#520000
0)
#525000
b110101 S
b110101 s"
1)
#530000
0)
#535000
b110110 S
b110110 s"
1)
#540000
0)
#545000
b110111 S
b110111 s"
1)
#550000
0)
#555000
b111000 S
b111000 s"
1)
#560000
0)
#565000
b111001 S
b111001 s"
1)
#570000
0)
#575000
b111010 S
b111010 s"
1)
#580000
0)
#585000
b111011 S
b111011 s"
1)
#590000
0)
#595000
b111100 S
b111100 s"
1)
#600000
0)
#605000
b111101 S
b111101 s"
1)
#610000
0)
#615000
b111110 S
b111110 s"
1)
#620000
0)
#625000
b111111 S
b111111 s"
1)
#630000
0)
#635000
b1000000 S
b1000000 s"
1)
#640000
0)
#645000
b1000001 S
b1000001 s"
1)
#650000
0)
#655000
b1000010 S
b1000010 s"
1)
#660000
0)
#665000
b1000011 S
b1000011 s"
1)
#670000
0)
#675000
b1000100 S
b1000100 s"
1)
#680000
0)
#685000
b1000101 S
b1000101 s"
1)
#690000
0)
#695000
b1000110 S
b1000110 s"
1)
#700000
0)
#705000
b1000111 S
b1000111 s"
1)
#710000
0)
#715000
b1001000 S
b1001000 s"
1)
#720000
0)
#725000
b1001001 S
b1001001 s"
1)
#730000
0)
#735000
b1001010 S
b1001010 s"
1)
#740000
0)
#745000
b1001011 S
b1001011 s"
1)
#750000
0)
#755000
b1001100 S
b1001100 s"
1)
#760000
0)
#765000
b1001101 S
b1001101 s"
1)
#770000
0)
#775000
b1001110 S
b1001110 s"
1)
#780000
0)
#785000
b1001111 S
b1001111 s"
1)
#790000
0)
#795000
b1010000 S
b1010000 s"
1)
#800000
0)
#805000
b1010001 S
b1010001 s"
1)
#810000
0)
#815000
b1010010 S
b1010010 s"
1)
#820000
0)
#825000
b1010011 S
b1010011 s"
1)
#830000
0)
#835000
b1010100 S
b1010100 s"
1)
#840000
0)
#845000
b1010101 S
b1010101 s"
1)
#850000
0)
#855000
b1010110 S
b1010110 s"
1)
#860000
0)
#865000
b1010111 S
b1010111 s"
1)
#870000
0)
#875000
b1011000 S
b1011000 s"
1)
#880000
0)
#885000
b1011001 S
b1011001 s"
1)
#890000
0)
#895000
b1011010 S
b1011010 s"
1)
#900000
0)
#905000
b1011011 S
b1011011 s"
1)
#910000
0)
#915000
b1011100 S
b1011100 s"
1)
#920000
0)
#925000
b1011101 S
b1011101 s"
1)
#930000
0)
#935000
b1011110 S
b1011110 s"
1)
#940000
0)
#945000
b1011111 S
b1011111 s"
1)
#950000
0)
#955000
b1100000 S
b1100000 s"
1)
#960000
0)
#965000
b1100001 S
b1100001 s"
1)
#970000
0)
#975000
b1100010 S
b1100010 s"
1)
#980000
0)
#985000
b1100011 S
b1100011 s"
1)
#990000
0)
#995000
b1100100 S
b1100100 s"
1)
#1000000
0)
#1005000
b1100101 S
b1100101 s"
1)
#1010000
0)
#1015000
b1100110 S
b1100110 s"
1)
#1020000
0)
#1025000
b1100111 S
b1100111 s"
1)
#1030000
0)
#1035000
b1101000 S
b1101000 s"
1)
#1040000
0)
#1045000
b1101001 S
b1101001 s"
1)
#1050000
0)
#1055000
b1101010 S
b1101010 s"
1)
#1060000
0)
#1065000
b1101011 S
b1101011 s"
1)
#1070000
0)
#1075000
b1101100 S
b1101100 s"
1)
#1080000
0)
#1085000
b1101101 S
b1101101 s"
1)
#1090000
0)
#1095000
b1101110 S
b1101110 s"
1)
#1100000
0)
#1105000
b1101111 S
b1101111 s"
1)
#1110000
0)
#1115000
b1110000 S
b1110000 s"
1)
#1120000
0)
#1125000
b1110001 S
b1110001 s"
1)
#1130000
0)
#1135000
b1110010 S
b1110010 s"
1)
#1140000
0)
#1145000
b1110011 S
b1110011 s"
1)
#1150000
0)
#1155000
b1110100 S
b1110100 s"
1)
#1160000
0)
#1165000
b1110101 S
b1110101 s"
1)
#1170000
0)
#1175000
b1110110 S
b1110110 s"
1)
#1180000
0)
#1185000
b1110111 S
b1110111 s"
1)
#1190000
0)
#1195000
b1111000 S
b1111000 s"
1)
#1200000
0)
#1205000
b1111001 S
b1111001 s"
1)
#1210000
0)
#1215000
b1111010 S
b1111010 s"
1)
#1220000
0)
#1225000
b1111011 S
b1111011 s"
1)
#1230000
0)
#1235000
b1111100 S
b1111100 s"
1)
#1240000
0)
#1245000
b1111101 S
b1111101 s"
1)
#1250000
0)
#1255000
b1111110 S
b1111110 s"
1)
#1260000
0)
#1265000
b1111111 S
b1111111 s"
1)
#1270000
0)
#1275000
b10000000 S
b10000000 s"
1)
#1280000
0)
#1285000
b10000001 S
b10000001 s"
1)
#1290000
0)
#1295000
b10000010 S
b10000010 s"
1)
#1300000
0)
#1305000
b10000011 S
b10000011 s"
1)
#1310000
0)
#1315000
b10000100 S
b10000100 s"
1)
#1320000
0)
#1325000
b10000101 S
b10000101 s"
1)
#1330000
0)
#1335000
b10000110 S
b10000110 s"
1)
#1340000
0)
#1345000
b10000111 S
b10000111 s"
1)
#1350000
0)
#1355000
b10001000 S
b10001000 s"
1)
#1360000
0)
#1365000
b10001001 S
b10001001 s"
1)
#1370000
0)
#1375000
b10001010 S
b10001010 s"
1)
#1380000
0)
#1385000
b10001011 S
b10001011 s"
1)
#1390000
0)
#1395000
b10001100 S
b10001100 s"
1)
#1400000
0)
#1405000
b10001101 S
b10001101 s"
1)
#1410000
0)
#1415000
b10001110 S
b10001110 s"
1)
#1420000
0)
#1425000
b10001111 S
b10001111 s"
1)
#1430000
0)
#1435000
b10010000 S
b10010000 s"
1)
#1440000
0)
#1445000
b10010001 S
b10010001 s"
1)
#1450000
0)
#1455000
b10010010 S
b10010010 s"
1)
#1460000
0)
#1465000
b10010011 S
b10010011 s"
1)
#1470000
0)
#1475000
b10010100 S
b10010100 s"
1)
#1480000
0)
#1485000
b10010101 S
b10010101 s"
1)
#1490000
0)
#1495000
b10010110 S
b10010110 s"
1)
#1500000
0)
#1505000
b10010111 S
b10010111 s"
1)
#1510000
0)
#1515000
b10011000 S
b10011000 s"
1)
#1520000
0)
#1525000
b10011001 S
b10011001 s"
1)
#1530000
0)
#1535000
b10011010 S
b10011010 s"
1)
#1540000
0)
#1545000
b10011011 S
b10011011 s"
1)
#1550000
0)
#1555000
b10011100 S
b10011100 s"
1)
#1560000
0)
#1565000
b10011101 S
b10011101 s"
1)
#1570000
0)
#1575000
b10011110 S
b10011110 s"
1)
#1580000
0)
#1585000
b10011111 S
b10011111 s"
1)
#1590000
0)
#1595000
b10100000 S
b10100000 s"
1)
#1600000
0)
#1605000
b10100001 S
b10100001 s"
1)
#1610000
0)
#1615000
b10100010 S
b10100010 s"
1)
#1620000
0)
#1625000
b10100011 S
b10100011 s"
1)
#1630000
0)
#1635000
b10100100 S
b10100100 s"
1)
#1640000
0)
#1645000
b10100101 S
b10100101 s"
1)
#1650000
0)
#1655000
b10100110 S
b10100110 s"
1)
#1660000
0)
#1665000
b10100111 S
b10100111 s"
1)
#1670000
0)
#1675000
b10101000 S
b10101000 s"
1)
#1680000
0)
#1685000
b10101001 S
b10101001 s"
1)
#1690000
0)
#1695000
b10101010 S
b10101010 s"
1)
#1700000
0)
#1705000
b10101011 S
b10101011 s"
1)
#1710000
0)
#1715000
b10101100 S
b10101100 s"
1)
#1720000
0)
#1725000
b10101101 S
b10101101 s"
1)
#1730000
0)
#1735000
b10101110 S
b10101110 s"
1)
#1740000
0)
#1745000
b10101111 S
b10101111 s"
1)
#1750000
0)
#1755000
b10110000 S
b10110000 s"
1)
#1760000
0)
#1765000
b10110001 S
b10110001 s"
1)
#1770000
0)
#1775000
b10110010 S
b10110010 s"
1)
#1780000
0)
#1785000
b10110011 S
b10110011 s"
1)
#1790000
0)
#1795000
b10110100 S
b10110100 s"
1)
#1800000
0)
#1805000
b10110101 S
b10110101 s"
1)
#1810000
0)
#1815000
b10110110 S
b10110110 s"
1)
#1820000
0)
#1825000
b10110111 S
b10110111 s"
1)
#1830000
0)
#1835000
b10111000 S
b10111000 s"
1)
#1840000
0)
#1845000
b10111001 S
b10111001 s"
1)
#1850000
0)
#1855000
b10111010 S
b10111010 s"
1)
#1860000
0)
#1865000
b10111011 S
b10111011 s"
1)
#1870000
0)
#1875000
b10111100 S
b10111100 s"
1)
#1880000
0)
#1885000
b10111101 S
b10111101 s"
1)
#1890000
0)
#1895000
b10111110 S
b10111110 s"
1)
#1900000
0)
#1905000
b10111111 S
b10111111 s"
1)
#1910000
0)
#1915000
b11000000 S
b11000000 s"
1)
#1920000
0)
#1925000
b11000001 S
b11000001 s"
1)
#1930000
0)
#1935000
b11000010 S
b11000010 s"
1)
#1940000
0)
#1945000
b11000011 S
b11000011 s"
1)
#1950000
0)
#1955000
b11000100 S
b11000100 s"
1)
#1960000
0)
#1965000
b11000101 S
b11000101 s"
1)
#1970000
0)
#1975000
b11000110 S
b11000110 s"
1)
#1980000
0)
#1985000
b11000111 S
b11000111 s"
1)
#1990000
0)
#1995000
b11001000 S
b11001000 s"
1)
#2000000
0)
#2005000
b11001001 S
b11001001 s"
1)
#2010000
0)
#2015000
b11001010 S
b11001010 s"
1)
#2020000
0)
#2025000
b11001011 S
b11001011 s"
1)
#2030000
0)
#2035000
b11001100 S
b11001100 s"
1)
#2040000
0)
#2045000
b11001101 S
b11001101 s"
1)
#2050000
0)
#2055000
b11001110 S
b11001110 s"
1)
#2060000
0)
#2065000
b11001111 S
b11001111 s"
1)
#2070000
0)
#2075000
b11010000 S
b11010000 s"
1)
#2080000
0)
#2085000
b11010001 S
b11010001 s"
1)
#2090000
0)
#2095000
b11010010 S
b11010010 s"
1)
#2100000
0)
#2105000
b11010011 S
b11010011 s"
1)
#2110000
0)
#2115000
b11010100 S
b11010100 s"
1)
#2120000
0)
#2125000
b11010101 S
b11010101 s"
1)
#2130000
0)
#2135000
b11010110 S
b11010110 s"
1)
#2140000
0)
#2145000
b11010111 S
b11010111 s"
1)
#2150000
0)
#2155000
b11011000 S
b11011000 s"
1)
#2160000
0)
#2165000
b11011001 S
b11011001 s"
1)
#2170000
0)
#2175000
b11011010 S
b11011010 s"
1)
#2180000
0)
#2185000
b11011011 S
b11011011 s"
1)
#2190000
0)
#2195000
b11011100 S
b11011100 s"
1)
#2200000
0)
#2205000
b11011101 S
b11011101 s"
1)
#2210000
0)
#2215000
b11011110 S
b11011110 s"
1)
#2220000
0)
#2225000
b11011111 S
b11011111 s"
1)
#2230000
0)
#2235000
b11100000 S
b11100000 s"
1)
#2240000
0)
#2245000
b11100001 S
b11100001 s"
1)
#2250000
0)
#2255000
b11100010 S
b11100010 s"
1)
#2260000
0)
#2265000
b11100011 S
b11100011 s"
1)
#2270000
0)
#2275000
b11100100 S
b11100100 s"
1)
#2280000
0)
#2285000
b11100101 S
b11100101 s"
1)
#2290000
0)
#2295000
b11100110 S
b11100110 s"
1)
#2300000
0)
#2305000
b11100111 S
b11100111 s"
1)
#2310000
0)
#2315000
b11101000 S
b11101000 s"
1)
#2320000
0)
#2325000
b11101001 S
b11101001 s"
1)
#2330000
0)
#2335000
b11101010 S
b11101010 s"
1)
#2340000
0)
#2345000
b11101011 S
b11101011 s"
1)
#2350000
0)
#2355000
b11101100 S
b11101100 s"
1)
#2360000
0)
#2365000
b11101101 S
b11101101 s"
1)
#2370000
0)
#2375000
b11101110 S
b11101110 s"
1)
#2380000
0)
#2385000
b11101111 S
b11101111 s"
1)
#2390000
0)
#2395000
b11110000 S
b11110000 s"
1)
#2400000
0)
#2405000
b11110001 S
b11110001 s"
1)
#2410000
0)
#2415000
b11110010 S
b11110010 s"
1)
#2420000
0)
#2425000
b11110011 S
b11110011 s"
1)
#2430000
0)
#2435000
b11110100 S
b11110100 s"
1)
#2440000
0)
#2445000
b11110101 S
b11110101 s"
1)
#2450000
0)
#2455000
b11110110 S
b11110110 s"
1)
#2460000
0)
#2465000
b11110111 S
b11110111 s"
1)
#2470000
0)
#2475000
b11111000 S
b11111000 s"
1)
#2480000
0)
#2485000
b11111001 S
b11111001 s"
1)
#2490000
0)
#2495000
b11111010 S
b11111010 s"
1)
#2500000
0)
#2505000
b11111011 S
b11111011 s"
1)
#2510000
0)
#2515000
b11111100 S
b11111100 s"
1)
#2520000
0)
#2525000
b11111101 S
b11111101 s"
1)
#2530000
0)
#2535000
b11111110 S
b11111110 s"
1)
#2540000
0)
#2545000
b11111111 S
b11111111 s"
1)
#2550000
0)
#2555000
b100000000 S
b100000000 s"
1)
#2560000
0)
#2565000
b100000001 S
b100000001 s"
1)
#2570000
0)
#2575000
b100000010 S
b100000010 s"
1)
#2580000
0)
#2585000
b100000011 S
b100000011 s"
1)
#2590000
0)
#2595000
b100000100 S
b100000100 s"
1)
#2600000
0)
#2605000
b100000101 S
b100000101 s"
1)
#2610000
0)
#2615000
b100000110 S
b100000110 s"
1)
#2620000
0)
#2625000
b100000111 S
b100000111 s"
1)
#2630000
0)
#2635000
b100001000 S
b100001000 s"
1)
#2640000
0)
#2645000
b100001001 S
b100001001 s"
1)
#2650000
0)
#2655000
b100001010 S
b100001010 s"
1)
#2660000
0)
#2665000
b100001011 S
b100001011 s"
1)
#2670000
0)
#2675000
b100001100 S
b100001100 s"
1)
#2680000
0)
#2685000
b100001101 S
b100001101 s"
1)
#2690000
0)
#2695000
b100001110 S
b100001110 s"
1)
#2700000
0)
#2705000
b100001111 S
b100001111 s"
1)
#2710000
0)
#2715000
b100010000 S
b100010000 s"
1)
#2720000
0)
#2725000
b100010001 S
b100010001 s"
1)
#2730000
0)
#2735000
b100010010 S
b100010010 s"
1)
#2740000
0)
#2745000
b100010011 S
b100010011 s"
1)
#2750000
0)
#2755000
b100010100 S
b100010100 s"
1)
#2760000
0)
#2765000
b100010101 S
b100010101 s"
1)
#2770000
0)
#2775000
b100010110 S
b100010110 s"
1)
#2780000
0)
#2785000
b100010111 S
b100010111 s"
1)
#2790000
0)
#2795000
b100011000 S
b100011000 s"
1)
#2800000
0)
#2805000
b100011001 S
b100011001 s"
1)
#2810000
0)
#2815000
b100011010 S
b100011010 s"
1)
#2820000
0)
#2825000
b100011011 S
b100011011 s"
1)
#2830000
0)
#2835000
b100011100 S
b100011100 s"
1)
#2840000
0)
#2845000
b100011101 S
b100011101 s"
1)
#2850000
0)
#2855000
b100011110 S
b100011110 s"
1)
#2860000
0)
#2865000
b100011111 S
b100011111 s"
1)
#2870000
0)
#2875000
b100100000 S
b100100000 s"
1)
#2880000
0)
